day_008/project_1/project_1.sim/sim_1/behav/xsim/simulate.log
Time resolution is 1 ps
x    y    selAddSub | s    cout
 4  1 0 |  5 0
 9  3 1 |  6 1
13 13 0 | 10 1
 5  2 1 |  3 1
 1 13 0 | 14 0
 6 13 1 |  9 0
13 12 0 |  9 1
 9  6 1 |  3 1
 5 10 0 | 15 0
 5  7 1 | 14 0
 2 15 0 |  1 1
 2 14 1 |  4 0
 8  5 0 | 13 0
12 13 1 | 15 0
13  5 0 |  2 1
 3 10 1 |  9 0
 0  0 0 |  0 0
10 13 1 | 13 0
 6  3 0 |  9 0
13  3 1 | 10 1
$finish called at time : 200 ns : File "/home/itzzinfinity/Cozy Drive/100daysofRTL/day_008/project_1/project_1.srcs/sim_1/new/parallel_adder_4b_tb.v" Line 86
