day_009/project_1/project_1.sim/sim_1/behav/xsim/simulate.log
Time resolution is 1 ps
x    y    selAddSub | s    cout
13604 24193 0 | 33701 0
54793 22115 1 | 32934 1
31501 39309 0 |  1162 1
33893 21010 1 | 12883 1
58113 52493 0 | 40974 1
61814 52541 1 | 13385 1
22509 63372 0 | 20073 1
59897  9414 1 | 50483 1
33989 53930 0 | 22127 1
63461 29303 1 | 34174 1
54802 56207 0 | 41361 1
27122 38606 1 | 54068 0
31464 20165 0 | 47277 0
18780 10429 1 |  8623 1
22573  9829 0 | 32386 0
25187 34570 1 | 60265 0
 8832  8480 0 | 17312 0
17834 52381 1 | 35101 0
16022 47123 0 | 59049 0
14349 54867 1 | 25274 0
$finish called at time : 200 ns : File "/home/itzzinfinity/Cozy Drive/100daysofRTL/day_009/project_1/project_1.srcs/sim_1/new/parallel_add_sub_tb.v" Line 42
